…
### One row per study ("long")

Here is a visual to show how much the allele frequencies vary per SNP. 

First, we **flatten** the data frame, so that each SNP and population/study are on **one line**. 
```r 
(dat_maf <- dat %>% select(query, maf_population) %>% unnest(cols = c(maf_population)))
```

```
# A tibble: 43 x 5
   query      study          ref_seq Minor      MAF
   <chr>      <chr>          <chr>   <chr>    <dbl>
 1 rs11677783 1000Genomes    T       A     0.314   
 2 rs11677783 ALSPAC         T       A     0.166   
 3 rs11677783 Estonian       T       A     0.156   
 4 rs11677783 GENOME_DK      T       A     0.1     
 5 rs11677783 GnomAD         T       A     0.355   
 6 rs11677783 GoNL           T       A     0.164   
 7 rs11677783 KOREAN         T       A     0.000342
 8 rs11677783 Korea1K        T       A     0.000546
 9 rs11677783 NorthernSweden T       A     0.187   
10 rs11677783 PRJEB36033     T       A     0.3     
# … with 33 more rows
```
…
