…
# Convert the the output from raw to json format
res <- jsonlite::fromJSON(res, 
                          flatten = TRUE)

## convert the from json to dataframe object
res_data <- res$data$continent$countries %>% 
  as_tibble()

## Inspect the first 6 rows of the data
res_data
```

```
## # A tibble: 58 x 7
##    code  name             native            capital   currency phone languages  
##    <chr> <chr>            <chr>             <chr>     <chr>    <chr> <list>     
##  1 AO    Angola           Angola            Luanda    AOA      244   <df[,1] [1~
##  2 BF    Burkina Faso     Burkina Faso      Ouagadou~ XOF      226   <df[,1] [2~
##  3 BI    Burundi          Burundi           Bujumbura BIF      257   <df[,1] [2~
##  4 BJ    Benin            Bénin             Porto-No~ XOF      229   <df[,1] [1~
##  5 BW    Botswana         Botswana          Gaborone  BWP      267   <df[,1] [2~
##  6 CD    Democratic Repu~ République démoc~ Kinshasa  CDF      243   <df[,1] [5~
##  7 CF    Central African~ Ködörösêse tî Bê~ Bangui    XAF      236   <df[,1] [2~
##  8 CG    Republic of the~ République du Co~ Brazzavi~ XAF      242   <df[,1] [2~
##  9 CI    Ivory Coast      Côte d'Ivoire     Yamousso~ XOF      225   <df[,1] [1~
## 10 CM    Cameroon         Cameroon          Yaoundé   XAF      237   <df[,1] [2~
## # ... with 48 more rows
```
…
