…
```r 
ice_sf <- ice_sf %>%
  group_by(year, group) %>%
  summarize(do_union = FALSE, .groups = "drop") %>%
  st_cast(to = "POLYGON")
ice_sf
```

```
Simple feature collection with 1013 features and 2 fields
Geometry type: POLYGON
Dimension:     XY
Bounding box:  xmin: -2550000 ymin: -3250000 xmax: 2350000 ymax: 4950000
Projected CRS: NSIDC Sea Ice Polar Stereographic North
# A tibble: 1,013 x 3
   year  group                                                          geometry
   <fct> <fct>                                                     <POLYGON [m]>
 1 1980  0.1   ((125000 2100000, 150000 2100000, 150000 2075000, 125000 2075000…
 2 1980  1.1   ((-175000 2025000, -150000 2025000, -150000 2e+06, -175000 2e+06…
 3 1980  2.1   ((-1350000 1900000, -1250000 1900000, -1250000 1875000, -1275000…
 4 1980  3.1   ((-1250000 1875000, -1225000 1875000, -1225000 1850000, -1250000…
 5 1980  4.1   ((-1200000 1875000, -1175000 1875000, -1175000 1850000, -1200000…
 6 1980  5.1   ((425000 1800000, 450000 1800000, 450000 1775000, 425000 1775000…
 7 1980  6.1   ((-350000 1675000, -325000 1675000, -325000 1650000, -350000 165…
 8 1980  7.1   ((-2e+06 1650000, -1975000 1650000, -1975000 1600000, -2e+06 160…
 9 1980  8.1   ((750000 1625000, 875000 1625000, 875000 1600000, 850000 1600000…
10 1980  9.1   ((-2075000 1525000, -2050000 1525000, -2050000 1500000, -2075000…
# … with 1,003 more rows
```
…
```
Retrieved 1952 records of approximately 1952 (100%)
```

```r 
seals
```

```
# A tibble: 776 x 5
   eventDate      datasetName             decimalLongitude decimalLatitude  year
   <chr>          <chr>                              <dbl>           <dbl> <dbl>
 1 2020-02-02T13… Happywhale - Leopard s…            -63.7           -65.0  2020
 2 1985-10-14 04… <NA>                                62.8           -63.0  1985
 3 2016-12-25T02… Happywhale - Leopard s…            -62.6           -64.7  2016
 4 2018-01-29T10… Happywhale - Leopard s…            -54.6           -63.4  2018
 5 1986-11-21 07… <NA>                               102.            -62.5  1986
 6 2020-02-18T15… Happywhale - Leopard s…            -64.1           -65.1  2020
 7 2014-02-19T11… Happywhale - Leopard s…            -63.5           -64.8  2014
 8 1985-12-16 02… <NA>                                49.0           -63.6  1985
 9 1997-12-16 05… <NA>                                86.2           -64.3  1997
10 2018-02-11T10… Happywhale - Leopard s…            -59.0           -62.2  2018
# … with 766 more rows
```
…
