…
hacinamiento2

# # A tibble: 2,421 x 10
#    geocodigo   sin_hacinamiento medio  alto critico total_viviendas prop_sin prop_medio prop_alto prop_critico
#    <chr>                  <dbl> <dbl> <dbl>   <dbl>           <dbl>    <dbl>      <dbl>     <dbl>        <dbl>
#  1 13101011001             1072    28     2       2            1104     97.1       2.54     0.181        0.181
#  2 13101011002             1127    57    14       7            1205     93.5       4.73     1.16         0.581
#  3 13101011003             1029    23     6       4            1062     96.9       2.17     0.565        0.377
#  4 13101011004              801    49    18      13             881     90.9       5.56     2.04         1.48 
#  5 13101011005              886    49     9       5             949     93.4       5.16     0.948        0.527
#  6 13101021001             1219   107    35      16            1377     88.5       7.77     2.54         1.16 
#  7 13101021002             1223    78    15       7            1323     92.4       5.90     1.13         0.529
#  8 13101021003             1173   105    34       9            1321     88.8       7.95     2.57         0.681
#  9 13101021004             1199   110    47      14            1370     87.5       8.03     3.43         1.02 
# 10 13101021005              826    87    29      10             952     86.8       9.14     3.05         1.05 
# # … with 2,411 more rows
```
…
