…
## New advanced download function

The most exciting new feature is `multi_download()`: an advanced alternative to `curl_download()`. It can perform many requests concurrently, with nice progress updates and support for interrupting and resuming large files. This function does not error in case any of the individual requests fail; it returns a data frame with information about the status of each request.


```r
pkg <- 'curl'
mirror <- 'https://cloud.r-project.org'
db <- available.packages(repos = mirror)
packages <- c(pkg, tools::package_dependencies(pkg, db = db, reverse = TRUE)[[pkg]])
versions <- db[packages,'Version']
urls <- sprintf("%s/src/contrib/%s_%s.tar.gz", mirror, packages,  versions)
res <- curl::multi_download(urls)
res
# A tibble: 316 × 10
#   success status_…¹ resum…² url   destf…³ error type  modified             time
#   <lgl>       <int>   <dbl> <chr> <chr>   <chr> <chr> <dttm>              <dbl>
# 1 TRUE          200       0 http… curl_5… NA    appl… 2023-01-12 18:10:03 0.260
# 2 TRUE          200       0 http… abbyyR… NA    appl… 2019-06-25 04:30:07 0.713
# 3 TRUE          200       0 http… addins… NA    appl… 2021-01-10 18:50:12 0.214
# 4 TRUE          200       0 http… alfred… NA    appl… 2021-07-26 10:20:03 0.225
# 5 TRUE          200       0 http… allcon… NA    appl… 2022-08-11 10:00:07 0.226
# 6 TRUE          200       0 http… AMAPVo… NA    appl… 2022-12-05 09:22:33 0.266
# 7 TRUE          200       0 http… AnnoPr… NA    appl… 2022-11-14 08:30:13 0.891
# 8 TRUE          200       0 http… anyfli… NA    appl… 2022-08-12 15:40:03 0.394
# 9 TRUE          200       0 http… anyLib… NA    appl… 2018-11-05 15:00:04 0.282
#10 TRUE          200       0 http… aopdat… NA    appl… 2022-08-31 13:10:04 0.237
# … with 306 more rows, 1 more variable: headers <list>, and abbreviated
#   variable names ¹status_code, ²resumefrom, ³destfile
…
