…
Once we have a local taxonomy database, we're ready to start resolving using `name2taxid()`, which converts various common names and synonyms to their lowest specific taxonomic ID 
(just like the ID we used for _Coronaviridae_, and if we wanted, we could equally use these taxonomic IDs to search for nucleotide sequences of hosts!)

```r 
library(taxizedb)
src_ncbi <- src_ncbi() # load the NCBI taxonomy database into R

all_tax_match <- host_table$host %>%
  name2taxid(db = "ncbi", out_type = "summary")

all_tax_match
```

```
# A tibble: 422 x 2
   name                id   
   <chr>               <chr>
 1 Homo sapiens        9606 
 2 chicken             9031 
 3 pig                 9823 
 4 Gallus gallus       9031 
 5 swine               9823 
 6 Felis catus         9685 
 7 Sus scrofa          9823 
 8 Camelus dromedarius 9838 
 9 cat                 9685 
10 Microchiroptera     30560
# ... with 412 more rows
```
…
all_tax_full
```

```
# A tibble: 422 x 12
   name               id    class_name class_id order_name  order_id family_name family_id genus_name genus_id species_name       species_id
   <chr>              <chr> <chr>      <chr>    <chr>       <chr>    <chr>       <chr>     <chr>      <chr>    <chr>              <chr>     
 1 Homo sapiens       9606  Mammalia   40674    Primates    9443     Hominidae   9604      Homo       9605     Homo sapiens       9606      
 2 chicken            9031  Aves       8782     Galliformes 8976     Phasianidae 9005      Gallus     9030     Gallus gallus      9031      
 3 pig                9823  Mammalia   40674    Artiodacty~ 91561    Suidae      9821      Sus        9822     Sus scrofa         9823      
 4 Gallus gallus      9031  Aves       8782     Galliformes 8976     Phasianidae 9005      Gallus     9030     Gallus gallus      9031      
 5 swine              9823  Mammalia   40674    Artiodacty~ 91561    Suidae      9821      Sus        9822     Sus scrofa         9823      
 6 Felis catus        9685  Mammalia   40674    Carnivora   33554    Felidae     9681      Felis      9682     Felis catus        9685      
 7 Sus scrofa         9823  Mammalia   40674    Artiodacty~ 91561    Suidae      9821      Sus        9822     Sus scrofa         9823      
 8 Camelus dromedari~ 9838  Mammalia   40674    Artiodacty~ 91561    Camelidae   9835      Camelus    9836     Camelus dromedari~ 9838      
 9 cat                9685  Mammalia   40674    Carnivora   33554    Felidae     9681      Felis      9682     Felis catus        9685      
10 Microchiroptera    30560 Mammalia   40674    Chiroptera  9397     <NA>        <NA>      <NA>       <NA>     <NA>               <NA>      
# ... with 412 more rows
```
…
