…
**Empirical distributions**, where the data *are* the distribution.
These respect observed behaviour without forcing a specific shape, and are also commonly used as a benchmark for comparison against other models.
Here’s an example using the Ozone concentration from the `airquality` dataset that comes loaded with R.

``` r
# Empirical distribution of Ozone from the `airquality` dataset.
emp <- dst_empirical(airquality$Ozone, na_action_y = "drop")
# Inspect
print(emp, n = 5)
```

    Finite distribution (discrete) 
    --Parameters--
    # A tibble: 67 × 2
      outcomes   probs
         <int>   <dbl>
    1        1 0.00862
    2        4 0.00862
    3        6 0.00862
    4        7 0.0259 
    5        8 0.00862
    # ℹ 62 more rows
…
``` r
# Wrangle the stocks data frame using tidyverse.
stocks <- as_tibble(EuStockMarkets) |> 
  mutate(across(everything(), \(x) 100 * (1 - x / lag(x)))) |> 
  drop_na()
```

The `stocks` data I’ve wrangled is a table of *daily percent loss* for four major European stock indices.
The dates don’t matter for this example, so they’ve been omitted.

``` r
stocks
```

    # A tibble: 1,859 × 4
          DAX    SMI     CAC    FTSE
        <dbl>  <dbl>   <dbl>   <dbl>
     1  0.928 -0.620  1.26   -0.679 
     2  0.441  0.586  1.86    0.488 
     3 -0.904 -0.328  0.576  -0.907 
     4  0.178 -0.148 -0.878  -0.579 
     5  0.467  0.889  0.511   0.720 
     6 -1.25  -0.676 -1.18   -0.855 
     7 -0.578 -1.23  -1.32   -0.824 
     8  0.287  0.358  0.193  -0.0837
     9 -0.637 -1.11  -0.0171  0.522 
    10 -0.118 -0.437 -0.314  -1.41  
    # ℹ 1,849 more rows
…
``` r
# Lengthen the data using tidyverse.
stocks2 <- pivot_longer(
  stocks,
  everything(), 
  names_to = "stock", 
  values_to = "daily_loss_pct"
)
# Inspect
stocks2
```

    # A tibble: 7,436 × 2
       stock daily_loss_pct
       <chr>          <dbl>
     1 DAX            0.928
     2 SMI           -0.620
     3 CAC            1.26 
     4 FTSE          -0.679
     5 DAX            0.441
     6 SMI            0.586
     7 CAC            1.86 
     8 FTSE           0.488
     9 DAX           -0.904
    10 SMI           -0.328
    # ℹ 7,426 more rows
…
