…
## Use case

Assume we have a list of patients who received surgery at specified dates:

```r 
library(coder)
ex_people # Random names and dates included in the package
```

```
# A tibble: 100 x 2
   name              surgery   
   <chr>             <date>    
 1 Chen, Trevor      2021-01-19
 2 Graves, Acineth   2020-10-11
 3 Trujillo, Yanelly 2020-09-28
 4 Simpson, Kenneth  2020-12-31
 5 Chin, Nelson      2020-12-14
 6 Le, Christina     2020-07-18
 7 Kang, Xuan        2020-10-20
 8 Shuemaker, Lauren 2020-07-19
 9 Boucher, Teresa   2020-12-25
10 Le, Soraiya       2020-11-29
# ... with 90 more rows
```

Those patients (among others) were also recorded in a national patient register with date of hospital admissions and corresponding ICD-10 codes. Each patient can have multiple hospital visits over the years. Also, multiple diagnosis might have been recorded at each occasion.

```r 
ex_icd10
```

```
# A tibble: 2,376 x 4
   name                 admission  icd10 hdia 
   <chr>                <date>     <chr> <lgl>
 1 Tran, Kenneth        2020-08-02 S134A FALSE
 2 Tran, Kenneth        2021-01-16 W3319 FALSE
 3 Tran, Kenneth        2020-12-26 Y0262 TRUE 
 4 Tran, Kenneth        2020-11-18 X0488 FALSE
 5 Sommerville, Dominic 2021-01-07 V8104 FALSE
 6 Sommerville, Dominic 2020-08-18 B853  FALSE
 7 Sommerville, Dominic 2021-01-02 Q174  FALSE
 8 Sommerville, Dominic 2020-08-23 A227  FALSE
 9 Sommerville, Dominic 2020-12-28 H702  FALSE
10 Sommerville, Dominic 2020-04-21 X6051 TRUE 
# ... with 2,366 more rows
```
…
